{
  "type": "minecraft:crafting_shaped",
  "pattern": [
    "GGG",
    "GSG",
    "GGG"
  ],
  "key": {
    "G": {
      "item": "techreborn:nickel_ingot"
    },
    "S": {
      "item": "minecraft:wheat_seeds"
    }
  },
  "result": {
    "item": "convth:seed_nickel",
    "count": 1
  }
}
