{
	"type": "minecraft:crafting_shaped",
	"pattern": [
		"CCC",
		"LGW",
		"CCC"
	],
	"key": {
		"C": {
			"item": "minecraft:cobblestone"
		},
		"G": {
			"item": "minecraft:glass"
		},
		"L": {
			"item": "minecraft:lava_bucket"
		},
		"W": {
			"item": "minecraft:water_bucket"
		}
	},
	"result": {
		"item": "convth:cobblestone_generator",
		"count": 1
	}
}
