{
    "__comment": "Model generated using MrCrayfish's Model Creator (https://mrcrayfish.com/tools?id=mc)",
    "textures": {
        "cobblestone": "minecraft:block/cobblestone",
        "anvil": "minecraft:block/anvil",
        "particle": "minecraft:block/anvil"
    },
    "display": {
        "gui": {
            "rotation": [ 30, 45, 0 ],
            "translation": [ 0, 0, 0 ],
            "scale": [ 0.625, 0.625, 0.625 ]
        },
        "ground": {
            "rotation": [ 0, 0, 0 ],
            "translation": [ 0, 3, 0 ],
            "scale": [ 0.25, 0.25, 0.25 ]
        },
        "fixed": {
            "rotation": [ 0, 180, 0 ],
            "translation": [ 0, 0, 0 ],
            "scale": [ 1, 1, 1 ]
        },
        "head": {
            "rotation": [ 0, 180, 0 ],
            "translation": [ 0, 0, 0 ],
            "scale": [ 1, 1, 1 ]
        },
        "firstperson_righthand": {
            "rotation": [ 0, 315, 0 ],
            "translation": [ 0, 2.5, 0 ],
            "scale": [ 0.4, 0.4, 0.4 ]
        },
        "thirdperson_righthand": {
            "rotation": [ 75, 315, 0 ],
            "translation": [ 0, 2.5, 0 ],
            "scale": [ 0.375, 0.375, 0.375 ]
        }
    },
    "elements": [
        {
            "name": "leg1",
            "from": [ 1, 0, 1 ], 
            "to": [ 3, 1, 3 ], 
            "faces": {
                "north": { "texture": "#anvil", "uv": [ 0, 0, 2, 1 ] },
                "east": { "texture": "#anvil", "uv": [ 0, 0, 2, 1 ] },
                "south": { "texture": "#anvil", "uv": [ 0, 0, 2, 1 ] },
                "west": { "texture": "#anvil", "uv": [ 0, 0, 2, 1 ] },
                "down": { "texture": "#anvil", "uv": [ 0, 0, 2, 2 ] }
            }
        },
        {
            "name": "leg2",
            "from": [ 13, 0, 1 ], 
            "to": [ 15, 1, 3 ], 
            "faces": {
                "north": { "texture": "#anvil", "uv": [ 0, 0, 2, 1 ] },
                "east": { "texture": "#anvil", "uv": [ 0, 0, 2, 1 ] },
                "south": { "texture": "#anvil", "uv": [ 0, 0, 2, 1 ] },
                "west": { "texture": "#anvil", "uv": [ 0, 0, 2, 1 ] },
                "down": { "texture": "#anvil", "uv": [ 0, 0, 2, 2 ] }
            }
        },
        {
            "name": "leg3",
            "from": [ 1, 0, 13 ], 
            "to": [ 3, 1, 15 ], 
            "faces": {
                "north": { "texture": "#anvil", "uv": [ 0, 0, 2, 1 ] },
                "east": { "texture": "#anvil", "uv": [ 0, 0, 2, 1 ] },
                "south": { "texture": "#anvil", "uv": [ 0, 0, 2, 1 ] },
                "west": { "texture": "#anvil", "uv": [ 0, 0, 2, 1 ] },
                "down": { "texture": "#anvil", "uv": [ 0, 0, 2, 2 ] }
            }
        },
        {
            "name": "leg4",
            "from": [ 13, 0, 13 ], 
            "to": [ 15, 1, 15 ], 
            "faces": {
                "north": { "texture": "#anvil", "uv": [ 0, 0, 2, 1 ] },
                "east": { "texture": "#anvil", "uv": [ 0, 0, 2, 1 ] },
                "south": { "texture": "#anvil", "uv": [ 0, 0, 2, 1 ] },
                "west": { "texture": "#anvil", "uv": [ 0, 0, 2, 1 ] },
                "down": { "texture": "#anvil", "uv": [ 0, 0, 2, 2 ] }
            }
        },
        {
            "name": "base",
            "from": [ 1, 1, 1 ], 
            "to": [ 15, 2, 15 ], 
            "faces": {
                "north": { "texture": "#anvil", "uv": [ 0, 0, 14, 1 ] },
                "east": { "texture": "#anvil", "uv": [ 0, 0, 14, 1 ] },
                "south": { "texture": "#anvil", "uv": [ 0, 0, 14, 1 ] },
                "west": { "texture": "#anvil", "uv": [ 0, 0, 14, 1 ] },
                "up": { "texture": "#anvil", "uv": [ 0, 0, 14, 14 ] },
                "down": { "texture": "#anvil", "uv": [ 0, 0, 14, 14 ] }
            }
        },
        {
            "name": "wall1",
            "from": [ 1, 2, 1 ], 
            "to": [ 14, 15, 2 ], 
            "faces": {
                "north": { "texture": "#anvil", "uv": [ 0, 0, 13, 13 ] },
                "south": { "texture": "#anvil", "uv": [ 0, 0, 13, 13 ] },
                "west": { "texture": "#anvil", "uv": [ 0, 0, 1, 13 ] },
                "up": { "texture": "#anvil", "uv": [ 0, 0, 13, 1 ] }
            }
        },
        {
            "name": "wall2",
            "from": [ 14, 2, 1 ], 
            "to": [ 15, 15, 14 ], 
            "faces": {
                "north": { "texture": "#anvil", "uv": [ 0, 0, 1, 13 ] },
                "east": { "texture": "#anvil", "uv": [ 0, 0, 13, 13 ] },
                "west": { "texture": "#anvil", "uv": [ 0, 0, 13, 13 ] },
                "up": { "texture": "#anvil", "uv": [ 0, 0, 1, 13 ] }
            }
        },
        {
            "name": "wall3",
            "from": [ 2, 2, 14 ], 
            "to": [ 15, 15, 15 ], 
            "faces": {
                "north": { "texture": "#anvil", "uv": [ 0, 0, 13, 13 ] },
                "east": { "texture": "#anvil", "uv": [ 0, 0, 1, 13 ] },
                "south": { "texture": "#anvil", "uv": [ 0, 0, 13, 13 ] },
                "up": { "texture": "#anvil", "uv": [ 0, 0, 13, 1 ] }
            }
        },
        {
            "name": "wall4",
            "from": [ 1, 2, 2 ], 
            "to": [ 2, 15, 15 ], 
            "faces": {
                "east": { "texture": "#anvil", "uv": [ 0, 0, 13, 13 ] },
                "south": { "texture": "#anvil", "uv": [ 0, 0, 1, 13 ] },
                "west": { "texture": "#anvil", "uv": [ 0, 0, 13, 13 ] },
                "up": { "texture": "#anvil", "uv": [ 0, 0, 1, 13 ] }
            }
        },
        {
            "name": "content",
            "from": [ 2, 2, 2 ], 
            "to": [ 14, 11, 14 ], 
            "faces": {
                "up": { "texture": "#cobblestone", "uv": [ 2, 2, 14, 14 ] }
            }
        }
    ]
}