{
  "type": "minecraft:block",
  "pools": [
    {
      "rolls": 1,
      "entries": [
        {
          "type": "minecraft:item",
          "name": "convth:seed_zinc"
        }
      ]
    },
    {
      "rolls": 1,
      "entries": [
        {
          "type": "minecraft:tag",
          "name": "c:zinc_ingot",
          "expand": true
        }
      ],
      "conditions": [
        {
          "condition": "minecraft:block_state_property",
          "block": "convth:plant_zinc",
          "properties": {
            "age": "7"
          }
        }
      ]
    },
    {
      "rolls": 1,
      "entries": [
        {
          "type": "minecraft:item",
          "name": "convth:seed_zinc",
          "weight": 5
        },
        {
          "type": "empty",
          "weight": 95
        }
      ],
      "conditions": [
        {
          "condition": "minecraft:block_state_property",
          "block": "convth:plant_zinc",
          "properties": {
            "age": "7"
          }
        }
      ]
    }
  ]
}